…
    ## [1] "15438" "11"    "1097"  "18"

We can see that GTEX has many more instances, but that's because each donor had many organs harvested. TCGA only deals with breast tissue, tumorous or otherwise. Let's see how we'd subset the GTEx Attribute data frame by seeing what tissue types there are.

``` r
gtex_tissue_counts <- tibble(GTEX_AttributesDF$SMTSD) %>% group_by(GTEX_AttributesDF$SMTSD) %>% tally()
head(gtex_tissue_counts, 25)
```

    ## # A tibble: 25 x 2
    ##    `GTEX_AttributesDF$SMTSD`                    n
    ##    <chr>                                    <int>
    ##  1 Adipose - Subcutaneous                     523
    ##  2 Adipose - Visceral (Omentum)               363
    ##  3 Adrenal Gland                              205
    ##  4 Artery - Aorta                             315
    ##  5 Artery - Coronary                          183
    ##  6 Artery - Tibial                            543
    ##  7 Bladder                                     11
    ##  8 Brain - Amygdala                           124
    ##  9 Brain - Anterior cingulate cortex (BA24)   148
    ## 10 Brain - Caudate (basal ganglia)            199
    ## # … with 15 more rows

We see that there are 306 *Breast - Mammary Tissue* tissue samples in all of the GTEX\_AttributesDF, which represent the attributes on all GTEx samples as of August 2019. The Wang publication was submitted in the Fall of 2017, so the work would have been late 2016-early 2017.

### Subsetting based on Tissue = Breast

Next, we'll subset the GTEX\_AttributesDF data frame by those whose detailed tissue is *Breast - Mammary Tissue*, and we see if there are any cases where more than 1 sample is derived from one donor.

``` r
GTEX_Attributes_Breast <- GTEX_AttributesDF %>% filter(SMTSD=="Breast - Mammary Tissue")
tibble(GTEX_Attributes_Breast$SUBJID) %>% group_by(GTEX_Attributes_Breast$SUBJID) %>% tally() %>% arrange(desc(n))
```

    ## # A tibble: 304 x 2
    ##    `GTEX_Attributes_Breast$SUBJID`     n
    ##    <chr>                           <int>
    ##  1 GTEX-145ME                          2
    ##  2 GTEX-ZDTT                           2
    ##  3 GTEX-1117F                          1
    ##  4 GTEX-111YS                          1
    ##  5 GTEX-1122O                          1
    ##  6 GTEX-117XS                          1
    ##  7 GTEX-117YX                          1
    ##  8 GTEX-1192X                          1
    ##  9 GTEX-11DXW                          1
    ## 10 GTEX-11DXY                          1
    ## # … with 294 more rows
…
